{
  "host": "localhost",
  "port": "9042",
  "user": "cassandra",
  "password": "cassandra",
  "datacenter": "datacenter1",
  "keyspace": "society",
  "cqlScriptOutput": "script.cql",
  "jsonSchema": "schema.json"
}
